Product Code,Product,Category,Price
ABC_512,Tomato,Fruit & Veg,12
ABC_225,Apple,Fruit & Veg,25
ABC_873,Sprite,Drinks,20.5
ABC_870,LipBalm,Beauty & Care,50
ABC_871,Refrigerator,Electronics ,1500
ABC_872,Stories By XYZ,Books ,24
ABC_873,Mobile Charger,Electronics ,240
ABC_877,Soya,Meat Free,200
ABC_878,Bacon,Meat & Poultry,35
ABC_879,Doughnut,Bakery ,45
ABC_880,Baby Wipes,Baby Care,15
ABC_881,Dishwasher Liquid,Cleaning & Household,28
